{
    "name": "suit-social",
    "repo": "user/suit-social",
    "version": "0.0.0",
    "styles": ["social.css"],
    "dependencies": {},
    "development": {
        "suitcss/test": "*"
    },
    "license": "MIT"
}
