<?xml version="1.0" encoding="UTF-8" standalone="no"?>
<!DOCTYPE svg PUBLIC "-//W3C//DTD SVG 1.1//EN"
 "http://www.w3.org/Graphics/SVG/1.1/DTD/svg11.dtd">
<!-- Generated by graphviz version 2.34.0 (20131105.0309)
 -->
<!-- Title: models_diagram Pages: 1 -->
<svg width="1355pt" height="1410pt"
 viewBox="0.00 0.00 1355.00 1410.00" xmlns="http://www.w3.org/2000/svg" xmlns:xlink="http://www.w3.org/1999/xlink">
<g id="graph0" class="graph" transform="scale(1 1) rotate(0) translate(4 1406)">
<title>models_diagram</title>
<polygon fill="white" stroke="white" points="-4,4 -4,-1406 1351,-1406 1351,4 -4,4"/>
<!-- AdminUser -->
<g id="node1" class="node"><title>AdminUser</title>
<path fill="none" stroke="black" d="M11.7222,-1150.4C11.7222,-1150.4 192.278,-1150.4 192.278,-1150.4 198.278,-1150.4 204.278,-1156.4 204.278,-1162.4 204.278,-1162.4 204.278,-1389.6 204.278,-1389.6 204.278,-1395.6 198.278,-1401.6 192.278,-1401.6 192.278,-1401.6 11.7222,-1401.6 11.7222,-1401.6 5.72217,-1401.6 -0.277832,-1395.6 -0.277832,-1389.6 -0.277832,-1389.6 -0.277832,-1162.4 -0.277832,-1162.4 -0.277832,-1156.4 5.72217,-1150.4 11.7222,-1150.4"/>
<text text-anchor="middle" x="102" y="-1383.6" font-family="Times,serif" font-size="14.00">AdminUser</text>
<polyline fill="none" stroke="black" points="-0.277832,-1376.8 204.278,-1376.8 "/>
<text text-anchor="start" x="7.72217" y="-1358.8" font-family="Times,serif" font-size="14.00">id :integer</text>
<text text-anchor="start" x="7.72217" y="-1342" font-family="Times,serif" font-size="14.00">email :string</text>
<text text-anchor="start" x="7.72217" y="-1325.2" font-family="Times,serif" font-size="14.00">encrypted_password :string</text>
<text text-anchor="start" x="7.72217" y="-1308.4" font-family="Times,serif" font-size="14.00">reset_password_token :string</text>
<text text-anchor="start" x="7.72217" y="-1291.6" font-family="Times,serif" font-size="14.00">reset_password_sent_at :datetime</text>
<text text-anchor="start" x="7.72217" y="-1274.8" font-family="Times,serif" font-size="14.00">remember_created_at :datetime</text>
<text text-anchor="start" x="7.72217" y="-1258" font-family="Times,serif" font-size="14.00">sign_in_count :integer</text>
<text text-anchor="start" x="7.72217" y="-1241.2" font-family="Times,serif" font-size="14.00">current_sign_in_at :datetime</text>
<text text-anchor="start" x="7.72217" y="-1224.4" font-family="Times,serif" font-size="14.00">last_sign_in_at :datetime</text>
<text text-anchor="start" x="7.72217" y="-1207.6" font-family="Times,serif" font-size="14.00">current_sign_in_ip :string</text>
<text text-anchor="start" x="7.72217" y="-1190.8" font-family="Times,serif" font-size="14.00">last_sign_in_ip :string</text>
<text text-anchor="start" x="7.72217" y="-1174" font-family="Times,serif" font-size="14.00">created_at :datetime</text>
<text text-anchor="start" x="7.72217" y="-1157.2" font-family="Times,serif" font-size="14.00">updated_at :datetime</text>
</g>
<!-- Brand -->
<g id="node2" class="node"><title>Brand</title>
<path fill="none" stroke="black" d="M1075.49,-1226C1075.49,-1226 1184.51,-1226 1184.51,-1226 1190.51,-1226 1196.51,-1232 1196.51,-1238 1196.51,-1238 1196.51,-1314 1196.51,-1314 1196.51,-1320 1190.51,-1326 1184.51,-1326 1184.51,-1326 1075.49,-1326 1075.49,-1326 1069.49,-1326 1063.49,-1320 1063.49,-1314 1063.49,-1314 1063.49,-1238 1063.49,-1238 1063.49,-1232 1069.49,-1226 1075.49,-1226"/>
<text text-anchor="middle" x="1130" y="-1308" font-family="Times,serif" font-size="14.00">Brand</text>
<polyline fill="none" stroke="black" points="1063.49,-1301.2 1196.51,-1301.2 "/>
<text text-anchor="start" x="1071.49" y="-1283.2" font-family="Times,serif" font-size="14.00">id :integer</text>
<text text-anchor="start" x="1071.49" y="-1266.4" font-family="Times,serif" font-size="14.00">name :string</text>
<text text-anchor="start" x="1071.49" y="-1249.6" font-family="Times,serif" font-size="14.00">created_at :datetime</text>
<text text-anchor="start" x="1071.49" y="-1232.8" font-family="Times,serif" font-size="14.00">updated_at :datetime</text>
</g>
<!-- Product -->
<g id="node7" class="node"><title>Product</title>
<path fill="none" stroke="black" d="M526.739,-876.8C526.739,-876.8 721.261,-876.8 721.261,-876.8 727.261,-876.8 733.261,-882.8 733.261,-888.8 733.261,-888.8 733.261,-1099.2 733.261,-1099.2 733.261,-1105.2 727.261,-1111.2 721.261,-1111.2 721.261,-1111.2 526.739,-1111.2 526.739,-1111.2 520.739,-1111.2 514.739,-1105.2 514.739,-1099.2 514.739,-1099.2 514.739,-888.8 514.739,-888.8 514.739,-882.8 520.739,-876.8 526.739,-876.8"/>
<text text-anchor="middle" x="624" y="-1093.2" font-family="Times,serif" font-size="14.00">Product</text>
<polyline fill="none" stroke="black" points="514.739,-1086.4 733.261,-1086.4 "/>
<text text-anchor="start" x="522.739" y="-1068.4" font-family="Times,serif" font-size="14.00">id :integer</text>
<text text-anchor="start" x="522.739" y="-1051.6" font-family="Times,serif" font-size="14.00">name :string</text>
<text text-anchor="start" x="522.739" y="-1034.8" font-family="Times,serif" font-size="14.00">created_at :datetime</text>
<text text-anchor="start" x="522.739" y="-1018" font-family="Times,serif" font-size="14.00">updated_at :datetime</text>
<text text-anchor="start" x="522.739" y="-1001.2" font-family="Times,serif" font-size="14.00">category_id :integer</text>
<text text-anchor="start" x="522.739" y="-984.4" font-family="Times,serif" font-size="14.00">asin :string</text>
<text text-anchor="start" x="522.739" y="-967.6" font-family="Times,serif" font-size="14.00">brand_id :integer</text>
<text text-anchor="start" x="522.739" y="-950.8" font-family="Times,serif" font-size="14.00">amazon_price :integer</text>
<text text-anchor="start" x="522.739" y="-934" font-family="Times,serif" font-size="14.00">amazon_price_updated_at :datetime</text>
<text text-anchor="start" x="522.739" y="-917.2" font-family="Times,serif" font-size="14.00">rank :integer</text>
<text text-anchor="start" x="522.739" y="-900.4" font-family="Times,serif" font-size="14.00">percentile :integer</text>
<text text-anchor="start" x="522.739" y="-883.6" font-family="Times,serif" font-size="14.00">score_value :decimal</text>
</g>
<!-- Brand&#45;&gt;Product -->
<g id="edge1" class="edge"><title>Brand&#45;&gt;Product</title>
<path fill="none" stroke="#1aa73b" d="M1056.3,-1234.22C973.98,-1188.66 839.547,-1114.27 742.429,-1060.53"/>
<ellipse fill="none" stroke="#1aa73b" cx="1059.83" cy="-1236.17" rx="4.00002" ry="4.00002"/>
<polygon fill="#1aa73b" stroke="#1aa73b" points="742.195,-1060.4 735.624,-1051.63 737.82,-1057.98 733.445,-1055.56 733.445,-1055.56 733.445,-1055.56 737.82,-1057.98 731.266,-1059.5 742.195,-1060.4 742.195,-1060.4"/>
</g>
<!-- Category -->
<g id="node3" class="node"><title>Category</title>
<path fill="none" stroke="black" d="M234.046,-1217.6C234.046,-1217.6 353.954,-1217.6 353.954,-1217.6 359.954,-1217.6 365.954,-1223.6 365.954,-1229.6 365.954,-1229.6 365.954,-1322.4 365.954,-1322.4 365.954,-1328.4 359.954,-1334.4 353.954,-1334.4 353.954,-1334.4 234.046,-1334.4 234.046,-1334.4 228.046,-1334.4 222.046,-1328.4 222.046,-1322.4 222.046,-1322.4 222.046,-1229.6 222.046,-1229.6 222.046,-1223.6 228.046,-1217.6 234.046,-1217.6"/>
<text text-anchor="middle" x="294" y="-1316.4" font-family="Times,serif" font-size="14.00">Category</text>
<polyline fill="none" stroke="black" points="222.046,-1309.6 365.954,-1309.6 "/>
<text text-anchor="start" x="230.046" y="-1291.6" font-family="Times,serif" font-size="14.00">id :integer</text>
<text text-anchor="start" x="230.046" y="-1274.8" font-family="Times,serif" font-size="14.00">name :string</text>
<text text-anchor="start" x="230.046" y="-1258" font-family="Times,serif" font-size="14.00">created_at :datetime</text>
<text text-anchor="start" x="230.046" y="-1241.2" font-family="Times,serif" font-size="14.00">updated_at :datetime</text>
<text text-anchor="start" x="230.046" y="-1224.4" font-family="Times,serif" font-size="14.00">active_months :integer</text>
</g>
<!-- Category&#45;&gt;Product -->
<g id="edge4" class="edge"><title>Category&#45;&gt;Product</title>
<path fill="none" stroke="#63d232" d="M368.25,-1212C409.104,-1177.34 460.732,-1133.53 506.887,-1094.37"/>
<ellipse fill="none" stroke="#63d232" cx="365.026" cy="-1214.74" rx="4.00002" ry="4.00002"/>
<polygon fill="#63d232" stroke="#63d232" points="506.917,-1094.34 517.453,-1091.3 510.729,-1091.11 514.542,-1087.87 514.542,-1087.87 514.542,-1087.87 510.729,-1091.11 511.63,-1084.44 506.917,-1094.34 506.917,-1094.34"/>
</g>
<!-- Spec -->
<g id="node10" class="node"><title>Spec</title>
<path fill="none" stroke="black" d="M169.657,-414.4C169.657,-414.4 290.343,-414.4 290.343,-414.4 296.343,-414.4 302.343,-420.4 302.343,-426.4 302.343,-426.4 302.343,-569.6 302.343,-569.6 302.343,-575.6 296.343,-581.6 290.343,-581.6 290.343,-581.6 169.657,-581.6 169.657,-581.6 163.657,-581.6 157.657,-575.6 157.657,-569.6 157.657,-569.6 157.657,-426.4 157.657,-426.4 157.657,-420.4 163.657,-414.4 169.657,-414.4"/>
<text text-anchor="middle" x="230" y="-563.6" font-family="Times,serif" font-size="14.00">Spec</text>
<polyline fill="none" stroke="black" points="157.657,-556.8 302.343,-556.8 "/>
<text text-anchor="start" x="165.657" y="-538.8" font-family="Times,serif" font-size="14.00">id :integer</text>
<text text-anchor="start" x="165.657" y="-522" font-family="Times,serif" font-size="14.00">name :string</text>
<text text-anchor="start" x="165.657" y="-505.2" font-family="Times,serif" font-size="14.00">created_at :datetime</text>
<text text-anchor="start" x="165.657" y="-488.4" font-family="Times,serif" font-size="14.00">updated_at :datetime</text>
<text text-anchor="start" x="165.657" y="-471.6" font-family="Times,serif" font-size="14.00">spec_group_id :integer</text>
<text text-anchor="start" x="165.657" y="-454.8" font-family="Times,serif" font-size="14.00">include :boolean</text>
<text text-anchor="start" x="165.657" y="-438" font-family="Times,serif" font-size="14.00">weight :integer</text>
<text text-anchor="start" x="165.657" y="-421.2" font-family="Times,serif" font-size="14.00">notes :text</text>
</g>
<!-- Category&#45;&gt;Spec -->
<g id="edge3" class="edge"><title>Category&#45;&gt;Spec</title>
<path fill="none" stroke="#d6d806" d="M287.203,-1207.3C278.435,-1118.79 263.006,-958.883 252,-822 245.768,-744.489 239.847,-656.421 235.72,-591.844"/>
<polygon fill="#d6d806" stroke="#d6d806" points="287.225,-1207.52 283.734,-1217.92 287.718,-1212.5 288.212,-1217.47 288.212,-1217.47 288.212,-1217.47 287.718,-1212.5 292.69,-1217.03 287.225,-1207.52 287.225,-1207.52"/>
<polygon fill="#d6d806" stroke="#d6d806" points="235.709,-591.667 239.564,-581.401 235.391,-586.677 235.074,-581.687 235.074,-581.687 235.074,-581.687 235.391,-586.677 230.583,-581.973 235.709,-591.667 235.709,-591.667"/>
</g>
<!-- SpecGroup -->
<g id="node11" class="node"><title>SpecGroup</title>
<path fill="none" stroke="black" d="M83.4946,-653.8C83.4946,-653.8 192.505,-653.8 192.505,-653.8 198.505,-653.8 204.505,-659.8 204.505,-665.8 204.505,-665.8 204.505,-792.2 204.505,-792.2 204.505,-798.2 198.505,-804.2 192.505,-804.2 192.505,-804.2 83.4946,-804.2 83.4946,-804.2 77.4946,-804.2 71.4946,-798.2 71.4946,-792.2 71.4946,-792.2 71.4946,-665.8 71.4946,-665.8 71.4946,-659.8 77.4946,-653.8 83.4946,-653.8"/>
<text text-anchor="middle" x="138" y="-786.2" font-family="Times,serif" font-size="14.00">SpecGroup</text>
<polyline fill="none" stroke="black" points="71.4946,-779.4 204.505,-779.4 "/>
<text text-anchor="start" x="79.4946" y="-761.4" font-family="Times,serif" font-size="14.00">id :integer</text>
<text text-anchor="start" x="79.4946" y="-744.6" font-family="Times,serif" font-size="14.00">name :string</text>
<text text-anchor="start" x="79.4946" y="-727.8" font-family="Times,serif" font-size="14.00">category_id :integer</text>
<text text-anchor="start" x="79.4946" y="-711" font-family="Times,serif" font-size="14.00">created_at :datetime</text>
<text text-anchor="start" x="79.4946" y="-694.2" font-family="Times,serif" font-size="14.00">updated_at :datetime</text>
<text text-anchor="start" x="79.4946" y="-677.4" font-family="Times,serif" font-size="14.00">include :boolean</text>
<text text-anchor="start" x="79.4946" y="-660.6" font-family="Times,serif" font-size="14.00">weight :integer</text>
</g>
<!-- Category&#45;&gt;SpecGroup -->
<g id="edge2" class="edge"><title>Category&#45;&gt;SpecGroup</title>
<path fill="none" stroke="#b20e52" d="M255.065,-1210.27C242.029,-1186.35 228.429,-1158.58 219,-1132 181.294,-1025.72 159.239,-897.065 147.902,-814.406"/>
<ellipse fill="none" stroke="#b20e52" cx="257.156" cy="-1214.06" rx="4.00002" ry="4.00002"/>
<polygon fill="#b20e52" stroke="#b20e52" points="147.877,-814.218 150.999,-803.706 147.208,-809.263 146.539,-804.308 146.539,-804.308 146.539,-804.308 147.208,-809.263 142.08,-804.91 147.877,-814.218 147.877,-814.218"/>
</g>
<!-- Template -->
<g id="node13" class="node"><title>Template</title>
<path fill="none" stroke="black" d="M1095.27,-637C1095.27,-637 1216.73,-637 1216.73,-637 1222.73,-637 1228.73,-643 1228.73,-649 1228.73,-649 1228.73,-809 1228.73,-809 1228.73,-815 1222.73,-821 1216.73,-821 1216.73,-821 1095.27,-821 1095.27,-821 1089.27,-821 1083.27,-815 1083.27,-809 1083.27,-809 1083.27,-649 1083.27,-649 1083.27,-643 1089.27,-637 1095.27,-637"/>
<text text-anchor="middle" x="1156" y="-803" font-family="Times,serif" font-size="14.00">Template</text>
<polyline fill="none" stroke="black" points="1083.27,-796.2 1228.73,-796.2 "/>
<text text-anchor="start" x="1091.27" y="-778.2" font-family="Times,serif" font-size="14.00">id :integer</text>
<text text-anchor="start" x="1091.27" y="-761.4" font-family="Times,serif" font-size="14.00">name :string</text>
<text text-anchor="start" x="1091.27" y="-744.6" font-family="Times,serif" font-size="14.00">content :text</text>
<text text-anchor="start" x="1091.27" y="-727.8" font-family="Times,serif" font-size="14.00">created_at :datetime</text>
<text text-anchor="start" x="1091.27" y="-711" font-family="Times,serif" font-size="14.00">updated_at :datetime</text>
<text text-anchor="start" x="1091.27" y="-694.2" font-family="Times,serif" font-size="14.00">ancestry :string</text>
<text text-anchor="start" x="1091.27" y="-677.4" font-family="Times,serif" font-size="14.00">category_id :integer</text>
<text text-anchor="start" x="1091.27" y="-660.6" font-family="Times,serif" font-size="14.00">rule_id :integer</text>
<text text-anchor="start" x="1091.27" y="-643.8" font-family="Times,serif" font-size="14.00">rule_parameters :string</text>
</g>
<!-- Category&#45;&gt;Template -->
<g id="edge5" class="edge"><title>Category&#45;&gt;Template</title>
<path fill="none" stroke="#aa2162" d="M373.969,-1253.38C465.891,-1226.85 619.8,-1177.24 742,-1112 910.598,-1021.98 964.336,-1002.87 1089,-858 1096.85,-848.876 1104.11,-838.675 1110.73,-828.122"/>
<ellipse fill="none" stroke="#aa2162" cx="369.937" cy="-1254.53" rx="4.00001" ry="4.00001"/>
<ellipse fill="#aa2162" stroke="#aa2162" cx="1112.9" cy="-824.558" rx="4.00002" ry="4.00002"/>
</g>
<!-- Content::Review -->
<g id="node4" class="node"><title>Content::Review</title>
<path fill="none" stroke="black" d="M494.495,-645.4C494.495,-645.4 603.505,-645.4 603.505,-645.4 609.505,-645.4 615.505,-651.4 615.505,-657.4 615.505,-657.4 615.505,-800.6 615.505,-800.6 615.505,-806.6 609.505,-812.6 603.505,-812.6 603.505,-812.6 494.495,-812.6 494.495,-812.6 488.495,-812.6 482.495,-806.6 482.495,-800.6 482.495,-800.6 482.495,-657.4 482.495,-657.4 482.495,-651.4 488.495,-645.4 494.495,-645.4"/>
<text text-anchor="middle" x="549" y="-794.6" font-family="Times,serif" font-size="14.00">Content::Review</text>
<polyline fill="none" stroke="black" points="482.495,-787.8 615.505,-787.8 "/>
<text text-anchor="start" x="490.495" y="-769.8" font-family="Times,serif" font-size="14.00">id :integer</text>
<text text-anchor="start" x="490.495" y="-753" font-family="Times,serif" font-size="14.00">title :string</text>
<text text-anchor="start" x="490.495" y="-736.2" font-family="Times,serif" font-size="14.00">content :text</text>
<text text-anchor="start" x="490.495" y="-719.4" font-family="Times,serif" font-size="14.00">type :string</text>
<text text-anchor="start" x="490.495" y="-702.6" font-family="Times,serif" font-size="14.00">product_id :integer</text>
<text text-anchor="start" x="490.495" y="-685.8" font-family="Times,serif" font-size="14.00">created_at :datetime</text>
<text text-anchor="start" x="490.495" y="-669" font-family="Times,serif" font-size="14.00">updated_at :datetime</text>
<text text-anchor="start" x="490.495" y="-652.2" font-family="Times,serif" font-size="14.00">slug :string</text>
</g>
<!-- Content -->
<g id="node5" class="node"><title>Content</title>
<path fill="none" stroke="black" d="M1226.49,-1192.4C1226.49,-1192.4 1335.51,-1192.4 1335.51,-1192.4 1341.51,-1192.4 1347.51,-1198.4 1347.51,-1204.4 1347.51,-1204.4 1347.51,-1347.6 1347.51,-1347.6 1347.51,-1353.6 1341.51,-1359.6 1335.51,-1359.6 1335.51,-1359.6 1226.49,-1359.6 1226.49,-1359.6 1220.49,-1359.6 1214.49,-1353.6 1214.49,-1347.6 1214.49,-1347.6 1214.49,-1204.4 1214.49,-1204.4 1214.49,-1198.4 1220.49,-1192.4 1226.49,-1192.4"/>
<text text-anchor="middle" x="1281" y="-1341.6" font-family="Times,serif" font-size="14.00">Content</text>
<polyline fill="none" stroke="black" points="1214.49,-1334.8 1347.51,-1334.8 "/>
<text text-anchor="start" x="1222.49" y="-1316.8" font-family="Times,serif" font-size="14.00">id :integer</text>
<text text-anchor="start" x="1222.49" y="-1300" font-family="Times,serif" font-size="14.00">title :string</text>
<text text-anchor="start" x="1222.49" y="-1283.2" font-family="Times,serif" font-size="14.00">content :text</text>
<text text-anchor="start" x="1222.49" y="-1266.4" font-family="Times,serif" font-size="14.00">type :string</text>
<text text-anchor="start" x="1222.49" y="-1249.6" font-family="Times,serif" font-size="14.00">product_id :integer</text>
<text text-anchor="start" x="1222.49" y="-1232.8" font-family="Times,serif" font-size="14.00">created_at :datetime</text>
<text text-anchor="start" x="1222.49" y="-1216" font-family="Times,serif" font-size="14.00">updated_at :datetime</text>
<text text-anchor="start" x="1222.49" y="-1199.2" font-family="Times,serif" font-size="14.00">slug :string</text>
</g>
<!-- Image -->
<g id="node6" class="node"><title>Image</title>
<path fill="none" stroke="black" d="M645.495,-653.8C645.495,-653.8 754.505,-653.8 754.505,-653.8 760.505,-653.8 766.505,-659.8 766.505,-665.8 766.505,-665.8 766.505,-792.2 766.505,-792.2 766.505,-798.2 760.505,-804.2 754.505,-804.2 754.505,-804.2 645.495,-804.2 645.495,-804.2 639.495,-804.2 633.495,-798.2 633.495,-792.2 633.495,-792.2 633.495,-665.8 633.495,-665.8 633.495,-659.8 639.495,-653.8 645.495,-653.8"/>
<text text-anchor="middle" x="700" y="-786.2" font-family="Times,serif" font-size="14.00">Image</text>
<polyline fill="none" stroke="black" points="633.495,-779.4 766.505,-779.4 "/>
<text text-anchor="start" x="641.495" y="-761.4" font-family="Times,serif" font-size="14.00">id :integer</text>
<text text-anchor="start" x="641.495" y="-744.6" font-family="Times,serif" font-size="14.00">name :string</text>
<text text-anchor="start" x="641.495" y="-727.8" font-family="Times,serif" font-size="14.00">product_id :integer</text>
<text text-anchor="start" x="641.495" y="-711" font-family="Times,serif" font-size="14.00">description :text</text>
<text text-anchor="start" x="641.495" y="-694.2" font-family="Times,serif" font-size="14.00">created_at :datetime</text>
<text text-anchor="start" x="641.495" y="-677.4" font-family="Times,serif" font-size="14.00">updated_at :datetime</text>
<text text-anchor="start" x="641.495" y="-660.6" font-family="Times,serif" font-size="14.00">image_uid :string</text>
</g>
<!-- ActsAsTaggableOn::Tagging -->
<g id="node14" class="node"><title>ActsAsTaggableOn::Tagging</title>
<ellipse fill="none" stroke="black" cx="514" cy="-498" rx="123.097" ry="18"/>
<text text-anchor="middle" x="514" y="-492.4" font-family="Times,serif" font-size="14.00">ActsAsTaggableOn::Tagging</text>
</g>
<!-- Image&#45;&gt;ActsAsTaggableOn::Tagging -->
<g id="edge6" class="edge"><title>Image&#45;&gt;ActsAsTaggableOn::Tagging</title>
<path fill="none" stroke="#377130" d="M641.494,-647.986C635.978,-643.441 630.137,-639.363 624,-636 595.247,-620.243 499.283,-642.558 477.559,-618 454.278,-591.683 475.279,-550.783 493.698,-524.446"/>
<ellipse fill="none" stroke="#377130" cx="644.809" cy="-650.887" rx="4.00002" ry="4.00002"/>
<polygon fill="#377130" stroke="#377130" points="493.882,-524.192 503.412,-518.767 496.83,-520.153 499.777,-516.114 499.777,-516.114 499.777,-516.114 496.83,-520.153 496.142,-513.462 493.882,-524.192 493.882,-524.192"/>
<text text-anchor="middle" x="500.721" y="-603.4" font-family="Times,serif" font-size="14.00">taggings</text>
</g>
<!-- Image&#45;&gt;ActsAsTaggableOn::Tagging -->
<g id="edge8" class="edge"><title>Image&#45;&gt;ActsAsTaggableOn::Tagging</title>
<path fill="none" stroke="#7b72da" d="M640.356,-648.147C635.151,-643.659 629.687,-639.543 624,-636 594.704,-617.75 573.439,-641.814 548.455,-618 523.551,-594.262 516.317,-553.728 514.394,-526.655"/>
<ellipse fill="none" stroke="#7b72da" cx="643.382" cy="-650.889" rx="4.00002" ry="4.00002"/>
<polygon fill="#7b72da" stroke="#7b72da" points="514.376,-526.298 518.364,-516.083 514.123,-521.305 513.87,-516.311 513.87,-516.311 513.87,-516.311 514.123,-521.305 509.376,-516.539 514.376,-526.298 514.376,-526.298"/>
<text text-anchor="middle" x="583.772" y="-603.4" font-family="Times,serif" font-size="14.00">tag_taggings</text>
</g>
<!-- Image&#45;&gt;ActsAsTaggableOn::Tagging -->
<g id="edge10" class="edge"><title>Image&#45;&gt;ActsAsTaggableOn::Tagging</title>
<path fill="none" stroke="#ce9683" d="M653.605,-646.878C643.248,-630.83 631.81,-614.483 620,-600 596.394,-571.05 564.96,-542.056 542.465,-522.607"/>
<ellipse fill="none" stroke="#ce9683" cx="655.825" cy="-650.359" rx="4.00002" ry="4.00002"/>
<polygon fill="#ce9683" stroke="#ce9683" points="542.212,-522.391 537.537,-512.472 538.412,-519.141 534.612,-515.892 534.612,-515.892 534.612,-515.892 538.412,-519.141 531.687,-519.312 542.212,-522.391 542.212,-522.391"/>
<text text-anchor="middle" x="678.655" y="-603.4" font-family="Times,serif" font-size="14.00">gallery_taggings</text>
</g>
<!-- Image&#45;&gt;ActsAsTaggableOn::Tagging -->
<g id="edge12" class="edge"><title>Image&#45;&gt;ActsAsTaggableOn::Tagging</title>
<path fill="none" stroke="#16cbd2" d="M642.415,-648.2C636.642,-643.502 630.495,-639.339 624,-636 572.581,-609.57 403.903,-660.271 364.462,-618 327.124,-577.983 399.994,-540.128 456.546,-518.264"/>
<ellipse fill="none" stroke="#16cbd2" cx="645.505" cy="-650.876" rx="4.00002" ry="4.00002"/>
<polygon fill="#16cbd2" stroke="#16cbd2" points="456.816,-518.162 467.761,-518.843 461.494,-516.397 466.172,-514.632 466.172,-514.632 466.172,-514.632 461.494,-516.397 464.584,-510.422 456.816,-518.162 456.816,-518.162"/>
<text text-anchor="middle" x="413.769" y="-603.4" font-family="Times,serif" font-size="14.00">location_taggings</text>
</g>
<!-- ActsAsTaggableOn::Tag -->
<g id="node15" class="node"><title>ActsAsTaggableOn::Tag</title>
<ellipse fill="none" stroke="black" cx="851" cy="-498" rx="106.344" ry="18"/>
<text text-anchor="middle" x="851" y="-492.4" font-family="Times,serif" font-size="14.00">ActsAsTaggableOn::Tag</text>
</g>
<!-- Image&#45;&gt;ActsAsTaggableOn::Tag -->
<g id="edge7" class="edge"><title>Image&#45;&gt;ActsAsTaggableOn::Tag</title>
<path fill="none" stroke="#8138a7" d="M776.507,-702.012C814.866,-684.651 857.787,-657.606 880,-618 896.417,-588.727 881.567,-550.315 867.764,-525.16"/>
<polygon fill="#8138a7" stroke="#8138a7" points="776.033,-702.218 765.068,-702.094 771.45,-704.218 766.868,-706.219 766.868,-706.219 766.868,-706.219 771.45,-704.218 768.668,-710.343 776.033,-702.218 776.033,-702.218"/>
<polygon fill="#8138a7" stroke="#8138a7" points="867.598,-524.873 866.488,-513.963 865.095,-520.544 862.592,-516.216 862.592,-516.216 862.592,-516.216 865.095,-520.544 858.697,-518.468 867.598,-524.873 867.598,-524.873"/>
<text text-anchor="middle" x="913.214" y="-603.4" font-family="Times,serif" font-size="14.00">base_tags</text>
</g>
<!-- Image&#45;&gt;ActsAsTaggableOn::Tag -->
<g id="edge9" class="edge"><title>Image&#45;&gt;ActsAsTaggableOn::Tag</title>
<path fill="none" stroke="#bc33aa" d="M776.613,-715.953C833.492,-702.562 907.306,-674.793 944,-618 967.022,-582.368 923.799,-544.245 888.869,-521.01"/>
<polygon fill="#bc33aa" stroke="#bc33aa" points="776.319,-716.02 765.575,-713.823 771.441,-717.116 766.563,-718.213 766.563,-718.213 766.563,-718.213 771.441,-717.116 767.55,-722.604 776.319,-716.02 776.319,-716.02"/>
<polygon fill="#bc33aa" stroke="#bc33aa" points="888.619,-520.85 882.649,-511.651 884.416,-518.142 880.212,-515.435 880.212,-515.435 880.212,-515.435 884.416,-518.142 877.776,-519.218 888.619,-520.85 888.619,-520.85"/>
<text text-anchor="middle" x="961.276" y="-603.4" font-family="Times,serif" font-size="14.00">tags</text>
</g>
<!-- Image&#45;&gt;ActsAsTaggableOn::Tag -->
<g id="edge11" class="edge"><title>Image&#45;&gt;ActsAsTaggableOn::Tag</title>
<path fill="none" stroke="#f04a50" d="M733.828,-644.086C741.194,-628.958 749.525,-613.666 758.579,-600 777.786,-571.011 805.226,-542.167 825.215,-522.772"/>
<polygon fill="#f04a50" stroke="#f04a50" points="733.662,-644.437 725.305,-651.537 731.516,-648.953 729.369,-653.469 729.369,-653.469 729.369,-653.469 731.516,-648.953 733.434,-655.4 733.662,-644.437 733.662,-644.437"/>
<polygon fill="#f04a50" stroke="#f04a50" points="825.254,-522.735 835.59,-519.071 828.867,-519.277 832.479,-515.82 832.479,-515.82 832.479,-515.82 828.867,-519.277 829.367,-512.569 825.254,-522.735 825.254,-522.735"/>
<text text-anchor="middle" x="781.71" y="-603.4" font-family="Times,serif" font-size="14.00">galleries</text>
</g>
<!-- Image&#45;&gt;ActsAsTaggableOn::Tag -->
<g id="edge13" class="edge"><title>Image&#45;&gt;ActsAsTaggableOn::Tag</title>
<path fill="none" stroke="#fc20f0" d="M773.692,-659.869C785.486,-646.734 796.812,-632.519 806,-618 824.396,-588.93 837.064,-551.185 844.165,-526.08"/>
<polygon fill="#fc20f0" stroke="#fc20f0" points="773.473,-660.108 763.393,-664.428 770.09,-663.79 766.707,-667.472 766.707,-667.472 766.707,-667.472 770.09,-663.79 770.021,-670.517 773.473,-660.108 773.473,-660.108"/>
<polygon fill="#fc20f0" stroke="#fc20f0" points="844.24,-525.806 851.21,-517.34 845.554,-520.982 846.868,-516.157 846.868,-516.157 846.868,-516.157 845.554,-520.982 842.526,-514.975 844.24,-525.806 844.24,-525.806"/>
<text text-anchor="middle" x="839.272" y="-603.4" font-family="Times,serif" font-size="14.00">locations</text>
</g>
<!-- Product&#45;&gt;Content::Review -->
<g id="edge20" class="edge"><title>Product&#45;&gt;Content::Review</title>
<path fill="none" stroke="#80a5b9" d="M588.55,-868.69C583.955,-852.575 579.318,-836.317 574.918,-820.885"/>
<ellipse fill="none" stroke="#80a5b9" cx="589.679" cy="-872.649" rx="4.00001" ry="4.00001"/>
<ellipse fill="#80a5b9" stroke="#80a5b9" cx="573.737" cy="-816.743" rx="4.00001" ry="4.00001"/>
<text text-anchor="middle" x="603.045" y="-843.4" font-family="Times,serif" font-size="14.00">review</text>
</g>
<!-- Product&#45;&gt;Image -->
<g id="edge18" class="edge"><title>Product&#45;&gt;Image</title>
<path fill="none" stroke="#997366" d="M659.908,-868.738C665.217,-850.368 670.58,-831.809 675.581,-814.501"/>
<ellipse fill="none" stroke="#997366" cx="658.777" cy="-872.653" rx="4.00001" ry="4.00001"/>
<polygon fill="#997366" stroke="#997366" points="675.705,-814.073 682.805,-805.715 677.093,-809.269 678.481,-804.466 678.481,-804.466 678.481,-804.466 677.093,-809.269 674.158,-803.216 675.705,-814.073 675.705,-814.073"/>
</g>
<!-- Score -->
<g id="node9" class="node"><title>Score</title>
<path fill="none" stroke="black" d="M268.829,-0.6C268.829,-0.6 387.171,-0.6 387.171,-0.6 393.171,-0.6 399.171,-6.6 399.171,-12.6 399.171,-12.6 399.171,-189.4 399.171,-189.4 399.171,-195.4 393.171,-201.4 387.171,-201.4 387.171,-201.4 268.829,-201.4 268.829,-201.4 262.829,-201.4 256.829,-195.4 256.829,-189.4 256.829,-189.4 256.829,-12.6 256.829,-12.6 256.829,-6.6 262.829,-0.6 268.829,-0.6"/>
<text text-anchor="middle" x="328" y="-183.4" font-family="Times,serif" font-size="14.00">Score</text>
<polyline fill="none" stroke="black" points="256.829,-176.6 399.171,-176.6 "/>
<text text-anchor="start" x="264.829" y="-158.6" font-family="Times,serif" font-size="14.00">id :integer</text>
<text text-anchor="start" x="264.829" y="-141.8" font-family="Times,serif" font-size="14.00">score_value :decimal</text>
<text text-anchor="start" x="264.829" y="-125" font-family="Times,serif" font-size="14.00">rank :integer</text>
<text text-anchor="start" x="264.829" y="-108.2" font-family="Times,serif" font-size="14.00">percentile :integer</text>
<text text-anchor="start" x="264.829" y="-91.4" font-family="Times,serif" font-size="14.00">scoreable_type :string</text>
<text text-anchor="start" x="264.829" y="-74.6" font-family="Times,serif" font-size="14.00">scoreable_id :integer</text>
<text text-anchor="start" x="264.829" y="-57.8" font-family="Times,serif" font-size="14.00">spec_value_id :integer</text>
<text text-anchor="start" x="264.829" y="-41" font-family="Times,serif" font-size="14.00">product_id :integer</text>
<text text-anchor="start" x="264.829" y="-24.2" font-family="Times,serif" font-size="14.00">created_at :datetime</text>
<text text-anchor="start" x="264.829" y="-7.4" font-family="Times,serif" font-size="14.00">updated_at :datetime</text>
</g>
<!-- Product&#45;&gt;Score -->
<g id="edge17" class="edge"><title>Product&#45;&gt;Score</title>
<path fill="none" stroke="#6b277f" d="M739.199,-874.529C839.385,-770.842 969.57,-634.246 976,-618 986.411,-591.696 1066.86,-566.329 966,-414 837.207,-219.48 550.278,-142.064 409.324,-114.909"/>
<ellipse fill="none" stroke="#6b277f" cx="736.33" cy="-877.497" rx="4.00002" ry="4.00002"/>
<polygon fill="#6b277f" stroke="#6b277f" points="409.258,-114.896 400.267,-108.618 404.345,-113.968 399.432,-113.039 399.432,-113.039 399.432,-113.039 404.345,-113.968 398.596,-117.461 409.258,-114.896 409.258,-114.896"/>
</g>
<!-- Product&#45;&gt;Score -->
<g id="edge19" class="edge"><title>Product&#45;&gt;Score</title>
<path fill="none" stroke="#432440" d="M740.437,-874.899C818.786,-832.444 1055,-805.133 1055,-730 1055,-730 1055,-730 1055,-307 1055,-173.665 596.276,-122.806 407.597,-107.527"/>
<ellipse fill="none" stroke="#432440" cx="736.809" cy="-877.03" rx="4.00002" ry="4.00002"/>
<ellipse fill="#432440" stroke="#432440" cx="403.351" cy="-107.188" rx="4" ry="4"/>
<text text-anchor="middle" x="1094.65" y="-492.4" font-family="Times,serif" font-size="14.00">product_score</text>
</g>
<!-- Product&#45;&gt;Spec -->
<g id="edge16" class="edge"><title>Product&#45;&gt;Spec</title>
<path fill="none" stroke="#a41dde" d="M504.59,-970.514C436.989,-951.667 356.34,-917.814 307,-858 298.437,-847.62 267.664,-694.709 247.709,-591.832"/>
<polygon fill="#a41dde" stroke="#a41dde" points="504.811,-970.574 513.288,-977.531 509.638,-971.881 514.464,-973.187 514.464,-973.187 514.464,-973.187 509.638,-971.881 515.64,-968.844 504.811,-970.574 504.811,-970.574"/>
<polygon fill="#a41dde" stroke="#a41dde" points="247.654,-591.546 250.171,-580.873 246.704,-586.637 245.753,-581.728 245.753,-581.728 245.753,-581.728 246.704,-586.637 241.335,-582.584 247.654,-591.546 247.654,-591.546"/>
</g>
<!-- Product&#45;&gt;SpecGroup -->
<g id="edge15" class="edge"><title>Product&#45;&gt;SpecGroup</title>
<path fill="none" stroke="#35a7f7" d="M504.584,-960.224C433.719,-937.681 343.964,-903.556 272,-858 251.188,-844.825 230.839,-828.082 212.538,-811.083"/>
<polygon fill="#35a7f7" stroke="#35a7f7" points="504.914,-960.328 513.104,-967.621 509.684,-961.828 514.454,-963.328 514.454,-963.328 514.454,-963.328 509.684,-961.828 515.804,-959.035 504.914,-960.328 504.914,-960.328"/>
<polygon fill="#35a7f7" stroke="#35a7f7" points="212.091,-810.661 207.915,-800.522 208.458,-807.227 204.824,-803.792 204.824,-803.792 204.824,-803.792 208.458,-807.227 201.733,-807.062 212.091,-810.661 212.091,-810.661"/>
</g>
<!-- SpecValue -->
<g id="node12" class="node"><title>SpecValue</title>
<path fill="none" stroke="black" d="M273.495,-241.2C273.495,-241.2 382.505,-241.2 382.505,-241.2 388.505,-241.2 394.505,-247.2 394.505,-253.2 394.505,-253.2 394.505,-362.8 394.505,-362.8 394.505,-368.8 388.505,-374.8 382.505,-374.8 382.505,-374.8 273.495,-374.8 273.495,-374.8 267.495,-374.8 261.495,-368.8 261.495,-362.8 261.495,-362.8 261.495,-253.2 261.495,-253.2 261.495,-247.2 267.495,-241.2 273.495,-241.2"/>
<text text-anchor="middle" x="328" y="-356.8" font-family="Times,serif" font-size="14.00">SpecValue</text>
<polyline fill="none" stroke="black" points="261.495,-350 394.505,-350 "/>
<text text-anchor="start" x="269.495" y="-332" font-family="Times,serif" font-size="14.00">id :integer</text>
<text text-anchor="start" x="269.495" y="-315.2" font-family="Times,serif" font-size="14.00">product_id :integer</text>
<text text-anchor="start" x="269.495" y="-298.4" font-family="Times,serif" font-size="14.00">spec_id :integer</text>
<text text-anchor="start" x="269.495" y="-281.6" font-family="Times,serif" font-size="14.00">created_at :datetime</text>
<text text-anchor="start" x="269.495" y="-264.8" font-family="Times,serif" font-size="14.00">updated_at :datetime</text>
<text text-anchor="start" x="269.495" y="-248" font-family="Times,serif" font-size="14.00">value :decimal</text>
</g>
<!-- Product&#45;&gt;SpecValue -->
<g id="edge14" class="edge"><title>Product&#45;&gt;SpecValue</title>
<path fill="none" stroke="#d5b8c2" d="M509.303,-877.444C449.215,-808.436 381.852,-715.439 351,-618 326.735,-541.364 322.961,-448.912 324.024,-385.219"/>
<ellipse fill="none" stroke="#d5b8c2" cx="512.085" cy="-880.619" rx="4.00002" ry="4.00002"/>
<polygon fill="#d5b8c2" stroke="#d5b8c2" points="324.032,-384.855 328.743,-374.952 324.138,-379.856 324.244,-374.857 324.244,-374.857 324.244,-374.857 324.138,-379.856 319.745,-374.762 324.032,-384.855 324.032,-384.855"/>
</g>
<!-- Product&#45;&gt;Template -->
<g id="edge21" class="edge"><title>Product&#45;&gt;Template</title>
<path fill="none" stroke="#a5c393" d="M741.188,-978.593C836.118,-962.188 969.48,-927.961 1066,-858 1077.78,-849.458 1088.58,-838.885 1098.28,-827.505"/>
<ellipse fill="none" stroke="#a5c393" cx="737.218" cy="-979.266" rx="4.00001" ry="4.00001"/>
<ellipse fill="#a5c393" stroke="#a5c393" cx="1101.01" cy="-824.193" rx="4.00002" ry="4.00002"/>
</g>
<!-- Rule -->
<g id="node8" class="node"><title>Rule</title>
<path fill="none" stroke="black" d="M1145.49,-935.6C1145.49,-935.6 1254.51,-935.6 1254.51,-935.6 1260.51,-935.6 1266.51,-941.6 1266.51,-947.6 1266.51,-947.6 1266.51,-1040.4 1266.51,-1040.4 1266.51,-1046.4 1260.51,-1052.4 1254.51,-1052.4 1254.51,-1052.4 1145.49,-1052.4 1145.49,-1052.4 1139.49,-1052.4 1133.49,-1046.4 1133.49,-1040.4 1133.49,-1040.4 1133.49,-947.6 1133.49,-947.6 1133.49,-941.6 1139.49,-935.6 1145.49,-935.6"/>
<text text-anchor="middle" x="1200" y="-1034.4" font-family="Times,serif" font-size="14.00">Rule</text>
<polyline fill="none" stroke="black" points="1133.49,-1027.6 1266.51,-1027.6 "/>
<text text-anchor="start" x="1141.49" y="-1009.6" font-family="Times,serif" font-size="14.00">id :integer</text>
<text text-anchor="start" x="1141.49" y="-992.8" font-family="Times,serif" font-size="14.00">name :string</text>
<text text-anchor="start" x="1141.49" y="-976" font-family="Times,serif" font-size="14.00">rule_method :string</text>
<text text-anchor="start" x="1141.49" y="-959.2" font-family="Times,serif" font-size="14.00">created_at :datetime</text>
<text text-anchor="start" x="1141.49" y="-942.4" font-family="Times,serif" font-size="14.00">updated_at :datetime</text>
</g>
<!-- Rule&#45;&gt;Template -->
<g id="edge22" class="edge"><title>Rule&#45;&gt;Template</title>
<path fill="none" stroke="#1fe97e" d="M1189.01,-927.286C1184.14,-898.214 1178.31,-863.364 1172.91,-831.098"/>
<ellipse fill="none" stroke="#1fe97e" cx="1189.68" cy="-931.338" rx="4.00001" ry="4.00001"/>
<polygon fill="#1fe97e" stroke="#1fe97e" points="1172.9,-831.039 1175.69,-820.433 1172.08,-826.107 1171.25,-821.176 1171.25,-821.176 1171.25,-821.176 1172.08,-826.107 1166.82,-821.919 1172.9,-831.039 1172.9,-831.039"/>
</g>
<!-- Spec&#45;&gt;Score -->
<g id="edge24" class="edge"><title>Spec&#45;&gt;Score</title>
<path fill="none" stroke="#46bb25" d="M228.626,-406.112C230.128,-356.136 235.753,-293.585 252,-240 254.947,-230.281 258.638,-220.477 262.795,-210.819"/>
<ellipse fill="none" stroke="#46bb25" cx="228.516" cy="-410.339" rx="4" ry="4"/>
<polygon fill="#46bb25" stroke="#46bb25" points="262.831,-210.739 271.023,-203.449 264.873,-206.175 266.915,-201.611 266.915,-201.611 266.915,-201.611 264.873,-206.175 262.807,-199.773 262.831,-210.739 262.831,-210.739"/>
</g>
<!-- Spec&#45;&gt;SpecValue -->
<g id="edge23" class="edge"><title>Spec&#45;&gt;SpecValue</title>
<path fill="none" stroke="#4d579b" d="M276.848,-407.128C280.928,-399.301 285.028,-391.437 289.034,-383.751"/>
<ellipse fill="none" stroke="#4d579b" cx="274.976" cy="-410.72" rx="4.00002" ry="4.00002"/>
<polygon fill="#4d579b" stroke="#4d579b" points="289.065,-383.692 297.678,-376.905 291.376,-379.258 293.687,-374.824 293.687,-374.824 293.687,-374.824 291.376,-379.258 289.697,-372.744 289.065,-383.692 289.065,-383.692"/>
</g>
<!-- SpecGroup&#45;&gt;Score -->
<g id="edge26" class="edge"><title>SpecGroup&#45;&gt;Score</title>
<path fill="none" stroke="#a2aead" d="M132.425,-645.632C130.113,-581.642 131.285,-491.11 149,-414 166.725,-336.847 210.787,-259.6 250.757,-201.27"/>
<ellipse fill="none" stroke="#a2aead" cx="132.583" cy="-649.697" rx="4" ry="4"/>
<polygon fill="#a2aead" stroke="#a2aead" points="250.927,-201.025 260.32,-195.366 253.774,-196.914 256.621,-192.804 256.621,-192.804 256.621,-192.804 253.774,-196.914 252.921,-190.242 250.927,-201.025 250.927,-201.025"/>
</g>
<!-- SpecGroup&#45;&gt;Spec -->
<g id="edge25" class="edge"><title>SpecGroup&#45;&gt;Spec</title>
<path fill="none" stroke="#14aefd" d="M170.933,-646.025C178.085,-628.223 185.697,-609.276 192.994,-591.112"/>
<ellipse fill="none" stroke="#14aefd" cx="169.361" cy="-649.939" rx="4.00001" ry="4.00001"/>
<polygon fill="#14aefd" stroke="#14aefd" points="193.05,-590.974 200.953,-583.372 194.914,-586.334 196.778,-581.694 196.778,-581.694 196.778,-581.694 194.914,-586.334 192.602,-580.017 193.05,-590.974 193.05,-590.974"/>
</g>
<!-- SpecValue&#45;&gt;Score -->
<g id="edge27" class="edge"><title>SpecValue&#45;&gt;Score</title>
<path fill="none" stroke="#227f0b" d="M328,-232.904C328,-225.394 328,-217.664 328,-209.892"/>
<ellipse fill="none" stroke="#227f0b" cx="328" cy="-237.008" rx="4" ry="4"/>
<ellipse fill="#227f0b" stroke="#227f0b" cx="328" cy="-205.451" rx="4" ry="4"/>
</g>
</g>
</svg>
